…
``` r
nyc_airbnb %>% 
  modelr::add_predictions(logistic_fit) %>% 
  mutate(pred = boot::inv.logit(pred)) # get probabilities of 0 or 1
```

    ## # A tibble: 40,492 × 7
    ##    price stars borough neighbourhood room_type       expensive_apt          pred
    ##    <dbl> <dbl> <chr>   <chr>         <chr>                   <dbl>         <dbl>
    ##  1    99   5   Bronx   City Island   Private room                0  0.0000000343
    ##  2   200  NA   Bronx   City Island   Private room                0 NA           
    ##  3   300  NA   Bronx   City Island   Entire home/apt             0 NA           
    ##  4   125   5   Bronx   City Island   Entire home/apt             0  0.0000000343
    ##  5    69   5   Bronx   City Island   Private room                0  0.0000000343
    ##  6   125   5   Bronx   City Island   Entire home/apt             0  0.0000000343
    ##  7    85   5   Bronx   City Island   Entire home/apt             0  0.0000000343
    ##  8    39   4.5 Bronx   Allerton      Private room                0  0.0000000234
    ##  9    95   5   Bronx   Allerton      Entire home/apt             0  0.0000000343
    ## 10   125   4.5 Bronx   Allerton      Entire home/apt             0  0.0000000234
    ## # … with 40,482 more rows
…
## Use modelr

``` r
sim_df_nonconst %>% 
  bootstrap(n = 1000, id = "strap_number") %>% 
  mutate(
    models = map(.x = strap, ~lm(y ~ x, data = .x)),
    results = map(models, broom::tidy)
  )
```

    ## # A tibble: 1,000 × 4
    ##    strap                strap_number models results         
    ##    <list>               <chr>        <list> <list>          
    ##  1 <resample [250 x 3]> 0001         <lm>   <tibble [2 × 5]>
    ##  2 <resample [250 x 3]> 0002         <lm>   <tibble [2 × 5]>
    ##  3 <resample [250 x 3]> 0003         <lm>   <tibble [2 × 5]>
    ##  4 <resample [250 x 3]> 0004         <lm>   <tibble [2 × 5]>
    ##  5 <resample [250 x 3]> 0005         <lm>   <tibble [2 × 5]>
    ##  6 <resample [250 x 3]> 0006         <lm>   <tibble [2 × 5]>
    ##  7 <resample [250 x 3]> 0007         <lm>   <tibble [2 × 5]>
    ##  8 <resample [250 x 3]> 0008         <lm>   <tibble [2 × 5]>
    ##  9 <resample [250 x 3]> 0009         <lm>   <tibble [2 × 5]>
    ## 10 <resample [250 x 3]> 0010         <lm>   <tibble [2 × 5]>
    ## # … with 990 more rows
…
